Islands
N16W170
N18W156
N19W155
N19W156
N19W157
N20W156
N20W157
N20W158
N21W157
N21W158
N21W159
N21W160
N21W161
N22W160
N22W161
N23W162
N23W165
N23W167
N24W168
N25W168
N25W172
N26W174
N27W176
N28W178
N28W179
S08W015
S16W006
S17W006
S21W029
S21W030
S29E167
S30E167
S30W178
S31W179
S32W179
S35E172
S35E173
S36E173
S36E174
S36E175
S37E173
S37E174
S37E175
S37E176
S38E077
S38E174
S38E175
S38E176
S38E177
S38E178
S38W013
S39E077
S39E174
S39E175
S39E176
S39E177
S39E178
S40E173
S40E174
S40E175
S40E176
S40E177
S40E178
S41E172
S41E173
S41E174
S41E175
S41E176
S41W010
S41W011
S42E171
S42E172
S42E173
S42E174
S42E175
S42E176
S43E170
S43E171
S43E172
S43E173
S43E174
S44E168
S44E169
S44E170
S44E171
S44E172
S44E173
S44W176
S44W177
S45E167
S45E168
S45E169
S45E170
S45E171
S45W176
S45W177
S46E050
S46E166
S46E167
S46E168
S46E169
S46E170
S46E171
S47E037
S47E038
S47E050
S47E051
S47E052
S47E166
S47E167
S47E168
S47E169
S47E170
S48E167
S48E168
S48E179
S49E068
S49E069
S49E166
S50E068
S50E069
S50E070
S50E178
S51E068
S51E165
S51E166
S53E073
S53E168
S53E169
S54E072
S54E073
S54W038
S54W039
S55E003
S55E158
S55W036
S55W037
S55W038
S55W039
S56E158
S56W035

